^D:\UNREAL PROJECTS\MYPROJECT 4.25\CONSOLEAPPLICATION1\CONSOLEAPPLICATION1\CONSOLEAPPLICATION1.CPP
D:\UNREAL PROJECTS\MYPROJECT 4.25\CONSOLEAPPLICATION1\CONSOLEAPPLICATION1\DEBUG\VC142.PDB
D:\UNREAL PROJECTS\MYPROJECT 4.25\CONSOLEAPPLICATION1\CONSOLEAPPLICATION1\DEBUG\VC142.IDB
D:\UNREAL PROJECTS\MYPROJECT 4.25\CONSOLEAPPLICATION1\CONSOLEAPPLICATION1\DEBUG\CONSOLEAPPLICATION1.OBJ
